{
  "swagger" : "2.0",
  "info" : {
    "version" : "v1",
    "title" : "DataLayer-2.0.0",
    "contact" : {
      "name" : "naveen.sinha@abzooba.com"
    }
  },
  "basePath" : "/datalayer/",
  "tags" : [ {
    "name" : "dynamodb"
  }, {
    "name" : "promotions"
  }, {
    "name" : "utility"
  }, {
    "name" : "cloudsearch"
  } ],
  "paths" : {
    "/v1/catalog/product/" : {
      "delete": {
        "tags": [
          "catalog"
        ],
        "summary": "Delete product from the catalog. Check DELETE /v1/dynamodb/product/  for more details ",
        "description": "Delete product from the catalog.",
        "operationId": "deleteProduct",
        "produces": [
          "application/json"
        ]
      },
      "post": {
        "tags": [
          "catalog"
        ],
        "summary": "Update product into the catalog. Check POST /v1/dynamodb/product/  for more details ",
        "description": "Update product into database.",
        "operationId": "updateProduct",
        "produces": [
          "application/json"
        ]
      },
      "put": {
        "tags": [
          "catalog"
        ],
        "summary": "Insert product into the catalog. Check PUT /v1/dynamodb/product/  for more details ",
        "description": "Insert product into database.",
        "operationId": "insertBatch",
        "produces": [
          "application/json"
        ]
      },
      "get": {
        "tags": [
          "catalog"
        ],
        "summary": "Fetch product from the catalog. CheckGET  /v1/dynamodb/product/  for more details ",
        "description": "Fetches product details from underlying database.",
        "operationId": "getProduct",
        "produces": [
          "application/json"
        ]
      }
    },
    "/v1/catalog/structuredSearch/" : {
      "get": {
        "tags": [
          "catalog"
        ],
        "summary": "Structured search api for catalog search. This api does not care about underlying database. Look for GET /v1/cloudsearch/structuredSearch/ for more details",
        "description": "Api to perform structured search operation on the search engine.",
        "operationId": "structuredSearch",
        "produces": [
          "application/json"
        ]
      }
    },
    "/v1/catalog/genericAPI/" : {
      "get": {
        "tags": [
          "catalog"
        ],
        "summary": "Generic api for catalog search. This api does not care about underlying database. Look for GET /v1/cloudsearch/genericAPI/ for more details",
        "description": "Api to perform generic search operation on the search engine.",
        "operationId": "genericAPI",
        "produces": [
          "application/json"
        ]
      }
    },
    "/v1/cloudsearch/structuredSearch/" : {
      "get": {
        "tags": [
          "cloudsearch"
        ],
        "summary": "Structured API to perform structured search on cloudsearch.",
        "description": "It performs strucutred search on cloudsearch on the basis of provided entity and conditions. Then we generate unique results for each value in return fields",
        "operationId": "structuedSearchAPI",
        "produces": [
          "application/json"
        ],
        "parameters": [
          {
            "name": "entity",
            "in": "query",
            "description": "Entity to search on all fields",
            "required": true,
            "type": "string"
          },
          {
            "name": "xc_category",
            "in": "query",
            "description": "thi is the generic key which can be any field that exist in cloudsearch.For eg, brand=adidas&xc_category=footwear. Condition is created from the map of all generic key and value. Basically hashmap of all cloudsearch key and value.Results are fetched for all items satisfying this condition",
            "required": false,
            "type": "string"
          },
          {
            "name": "prefixFields",
            "in": "query",
            "description": "Comma separated list of attributes which should be considered for prefix search",
            "required": false,
            "type": "string"
          }
        ],
        "responses": {
          "200": {
            "description": "successful operation",
            "schema": {
              "$ref": "#/definitions/CloudSearchResults"
            }
          },
          "400": {
            "description": "Invalid JSON/Invalid KeyName/KeyValue is required/Empty Items"
          },
          "500": {
            "description": "Something went wrong"
          }
        }
      }
    },
    "/v1/cloudsearch/genericAPI/" : {
      "get": {
        "tags": [
          "cloudsearch"
        ],
        "summary": "Generic API to fetch any available fields from cloudsearch filtered by conditions",
        "description": "It performs search on cloudsearch on the basis of provided conditions. Then we generate unique results for each value in return fields. It fetches top 3000 results and do a unique of each return fields and then give the results. Please use cursor to fetch all possible values",
        "operationId": "genericAPI",
        "produces": [
          "application/json"
        ],
        "parameters": [
          {
            "name": "returnField",
            "in": "query",
            "description": "Comma separated list of fields which needs to be returned in the results.",
            "default":0,
            "required": true,
            "type": "string"
          },
          {
            "name": "productDetails",
            "in": "query",
            "description": "If set to true, returns complete detail of the result items",
            "required": false,
            "type": "boolean"
          },
          {
            "name": "xc_category",
            "in": "query",
            "description": "generic Key can be any field that exist in cloudsearch.For eg, brand=adidas&xc_category=footwear. Condition is created from the map of all generic key and value. Results are fetched for all items satisfying this condition",
            "required": false,
            "type": "string"
          },
          {
            "name": "cursor",
            "in": "query",
            "description": "Cursor is used to iterate over next set of results",
            "required": false,
            "type": "string"
          },
          {
            "name": "pageSize",
            "in": "query",
            "description": "Size of the results returned after cloud search",
            "required": false,
            "type": "string"
          }
        ],
        "responses": {
          "200": {
            "description": "successful operation",
            "schema": {
              "$ref": "#/definitions/GenericCloudSearchResults"
            }
          },
          "400" : {
            "description" : "Invalid JSON/Invalid KeyName/KeyValue is required/Empty Items"
          },
          "500": {
            "description": "Something went wrong"
          }
        }
      },
      "delete": {
        "tags": [
          "cloudsearch"
        ],
        "summary": "Generic API to delete any items in cloudsearch filtered by conditions",
        "description": "It performs search on cloudsearch on the basis of provided conditions. All the results that returned is then deleted from cloudsearch. Please note single request will delete at max 3000 items. Keep iterating to delete all items until no item exist",
        "operationId": "deleteProduct",
        "produces": [
          "application/json"
        ],
        "parameters": [
          {
            "name": "genericKey",
            "in": "query",
            "description": "generic Key can be any field that exist in cloudsearch.For eg, brand=adidas&xc_category=footwear. Condition is created from the map of all generic key and value. Results are fetched for all items satisfying this condition. After the results are fetched these are deleted",
            "required": true,
            "type": "string"
          }
        ],
        "responses": {
          "200": {
            "description": "successful operation",
            "schema": {
              "$ref": "#/definitions/OK"
            }
          },
          "400" : {
            "description" : "Invalid JSON/Invalid KeyName/KeyValue is required/Empty Items"
          },
          "500": {
            "description": "Something went wrong"
          }
        }
      },
      "put" : {
        "tags" : [ "cloudsearch" ],
        "summary" : "Create a batch of new documents in cloudsearch",
        "description" : "Takes a json array of documents which needs to be inserted or replaced in the cloudsearch",
        "operationId" : "insertItem",
        "consumes" : [ "application/json" ],
        "produces" : [ "application/json" ],
        "parameters" : [ {
          "in" : "body",
          "name" : "body",
          "description" : "Json object which contains set of documents for insertion.",
          "required" : true,
          "schema" : {
            "$ref" : "#/definitions/CloudSearchPut"
          }
        } ],
        "responses" : {
          "200" : {
            "description" : "successful operation",
            "schema" : {
              "$ref" : "#/definitions/OK"
            }
          },
          "400" : {
            "description" : "Empty items"
          },
          "500" : {
            "description" : "Something went wrong"
          }
        }
      }
    },
    "/v1/dynamodb/scan/" : {
      "get": {
        "tags": [
          "dynamodb"
        ],
        "summary": "Gets a paginated list of all documents available in Dyanomo DB",
        "description": "It is used to retrieve all documnts from Dynamo DB table. List of documents are paginated and documents are retrieved  page and pageSize parameters",
        "operationId": "scanAll",
        "produces": [
          "application/json"
        ],
        "parameters": [
          {
            "name": "page",
            "in": "query",
            "description": "page number (defaults is 0)",
            "default":0,
            "required": false,
            "type": "string"
          },
          {
            "name": "pageSize",
            "in": "query",
            "description": "No of results to fetch in one request (defaults is 1000)",
            "default":1000,
            "required": false,
            "type": "string"
          },
          {
            "name": "returnField",
            "in": "query",
            "description": "Name of field to return for each documents from dynamodb, This can be repeated to add more fields. Eg. returnFields=xc_sku&returnFields=xc_category. By default, it returns everything.",
            "required": false,
            "type": "string"
          }
        ],
        "responses": {
          "200": {
            "description": "successful operation",
            "schema": {
              "$ref": "#/definitions/DynamoDBScanResults"
            }
          },
          "400" : {
            "description" : "Invalid JSON/Invalid KeyName/KeyValue is required/Empty Items"
          },
          "500": {
            "description": "Something went wrong"
          }
        }
      }
    },
    "/v1/dynamodb/product/" : {
      "get" : {
        "tags" : [ "dynamodb" ],
        "summary" : "Fetch a single document",
        "description" : "Fetches a single document from dynamodb using provided key",
        "operationId" : "getProduct",
        "produces" : [ "application/json" ],
        "parameters" : [
          {
            "name": "keyName",
            "in": "query",
            "description": "Name of the primary key field",
            "required": false,
            "type": "string"
          },
          {
            "name": "keyValue",
            "in": "query",
            "description": "Value of the primary key",
            "required": true,
            "type": "string"
          },
          {
            "name": "tableName",
            "in": "query",
            "description": "Name of the table",
            "required": false,
            "type": "string"
          }
        ],
        "responses" : {
          "200" : {
            "description" : "successful operation",
            "schema" : {
              "$ref" : "#/definitions/DynamoDBResults"
            }
          },
          "400" : {
            "description" : "Invalid JSON/Invalid KeyName/KeyValue is required/Empty Items"
          },
          "500" : {
            "description" : "Something went wrong"
          }
        }
      },
      "delete" : {
        "tags" : [ "dynamodb" ],
        "summary" : "Deletes a single document from dynamodb table",
        "description" : "Fetches a single document from dynamodb using provided key",
        "operationId" : "deleteProduct",
        "produces" : [ "application/json" ],
        "parameters" : [
          {
            "name": "keyName",
            "in": "query",
            "description": "Name of the primary key field",
            "required": false,
            "type": "string"
          },
          {
            "name": "keyValue",
            "in": "query",
            "description": "Value of the primary key",
            "required": true,
            "type": "string"
          },
          {
            "name": "tableName",
            "in": "query",
            "description": "Name of the able",
            "required": false,
            "type": "string"
          }
        ],
        "responses" : {
          "200" : {
            "description" : "successful operation",
            "schema" : {
              "$ref" : "#/definitions/OK"
            }
          },
          "400" : {
            "description" : "Invalid JSON/Invalid Key Name/Key Value is required/Empty Items/Invalid Table Name"
          },
          "500" : {
            "description" : "Something went wrong"
          }
        }
      },
      "post" : {
        "tags" : [ "dynamodb" ],
        "summary" : "Updates an existing document",
        "description" : "Updates given fields of the document which is fetched by keyName",
        "operationId" : "updateProduct",
        "consumes" : [ "application/json" ],
        "produces" : [ "application/json" ],
        "parameters" : [ {
          "in" : "body",
          "name" : "body",
          "description" : "Json Object which contains map of fields and value which will be updated with keyValue. Field tableName/keyValue is optional\nPossible value of types are N(Number), B(Boolean), SS(StringSet), L(List)",
          "required" : true,
          "schema" : {
            "$ref" : "#/definitions/DynamoDBPost"
          }
        } ],
        "responses" : {
          "200" : {
            "description" : "successful operation",
            "schema" : {
              "$ref" : "#/definitions/OK"
            }
          },
          "400" : {
            "description" : "Invalid JSON/Invalid KeyName/KeyValue is required/Empty Items"
          },
          "500" : {
            "description" : "Something went wrong"
          }
        }
      },
      "put" : {
        "tags" : [ "dynamodb" ],
        "summary" : "Create a batch of new documents",
        "description" : "Takes a json array of documents which needs to be inserted or replaced.",
        "operationId" : "insertBatch",
        "consumes" : [ "application/json" ],
        "produces" : [ "application/json" ],
        "parameters" : [ {
          "in" : "body",
          "name" : "body",
          "description" : "Json object which contains set of documents for insertion.\nFields tableName and keyName is optional.",
          "required" : true,
          "schema" : {
            "$ref" : "#/definitions/DynamoDBPut"
          }
        } ],
        "responses" : {
          "200" : {
            "description" : "successful operation",
            "schema" : {
              "$ref" : "#/definitions/OK"
            }
          },
          "400" : {
            "description" : "Empty items"
          },
          "500" : {
            "description" : "Something went wrong"
          }
        }
      }
    },
    "/v1/promotions/todayuser/" : {
      "get" : {
        "tags" : [ "promotions" ],
        "summary" : "Get API",
        "description" : "Get list of users for whom promotions needs to send",
        "operationId" : "getTodaysPromotions",
        "produces" : [ "application/json" ],
        "parameters" : [ {
          "name" : "page",
          "in" : "query",
          "description" : "start index of the product( mimics the mysql LIMIT page,pageSize )",
          "required" : false,
          "type" : "integer",
          "format" : "int32"
        }, {
          "name" : "pageSize",
          "in" : "query",
          "description" : "page size ( Default 1000)",
          "required" : false,
          "type" : "integer",
          "format" : "int32"
        } ],
        "responses" : {
          "200" : {
            "description" : "successful operation",
            "schema" : {
              "$ref" : "#/definitions/Result"
            }
          },
          "500" : {
            "description" : "Something went wrong"
          }
        }
      }
    },
    "/v1/util/brand/" : {
      "get" : {
        "tags" : [ "utility" ],
        "summary" : "Redirects to brand logo",
        "description" : "Redirects the brand logo to a corresponding s3 url. (This api wont work, doesn't support redirect url",
        "operationId" : "getBrand",
        "produces" : [ "application/json" ],
        "parameters" : [ {
          "name" : "brand",
          "in" : "query",
          "description" : "brand name",
          "required" : true,
          "type" : "string"
        } ],
        "responses" : {
          "200" : {
            "description" : "successful operation",
            "schema" : {
              "$ref" : "#/definitions/Result"
            }
          },
          "400" : {
            "description" : "Brand not provided"
          }
        }
      }
    }
  },
  "definitions" : {
    "OK":{
      "type":"object",
      "properties":{
        "code":{
          "type":"integer"
        },
        "status":{
          "type":"string"
        },
        "msg":{
          "type":"string"
        }
      }
    },
    "HttpEntity" : {
      "type" : "object",
      "properties" : {
        "knownEmpty" : {
          "type" : "boolean",
          "default" : false
        }
      }
    },
    "DynamoDBPut" : {
      "type" : "object",
      "required"  : [ "items"],
      "properties" : {
        "tableName":{
          "type":"string",
          "required":false
        },
        "keyName":{
          "type":"string",
          "required":false
        },
        "items":{
          "type":"array",
          "items":{
            "type":"object",
            "properties":{
              "xc_sku":{
                "type":"string"
              },
              "xc_category":{
                "type":"array",
                "items":{
                  "type":"string"
                }
              },
              "xc_hierachy":{
                "type":"array",
                "items":{
                  "type":"string"
                }
              },
              "productname":{
                "type":"string"
              },
              "image":{
                "type":"string"
              },
              "size":{
                "type":"array",
                "items":{
                  "type":"string"
                }
              }
            }
          }
        }
      }
    },
    "DynamoDBPost" : {
      "type" : "object",
      "required"  : [ "items","keyValue"],
      "properties" : {
        "tableName":{
          "type":"string",
          "required":false
        },
        "keyName":{
          "type":"string",
          "required":false
        },
        "keyValue":{
          "type":"string",
          "required":true
        },
        "items":{
          "type":"array",
          "items":{
            "type":"object",
            "properties":{
              "xc_category":{
                "type":"object",
                "properties":{
                  "type":{
                    "type":"string"
                  },
                  "value":{
                    "type":"string"
                  }
                }
              }
            }
          }
        }
      }
    },
    "DynamoDBResults":{
      "type":"object",
      "properties":{
        "Results":{
          "type":"object",
          "properties":{
            "xc_sku":{
              "type":"string"
            },
            "productname":{
              "type":"string"
            }
          }
        },
        "code":{
          "type":"integer"
        },
        "status":{
          "type":"string"
        },
        "msg":{
          "type":"string"
        }

      }
    },
    "DynamoDBScanResults":{
      "type":"object",
      "properties":{
        "Results":{
          "type":"object",
          "properties":{
            "productname":{
              "type":"string"
            },
            "xc_sku":{
              "type":"string"
            }
          }
        },
        "ResultCount":{
          "type":"integer"
        },
        "code":{
          "type":"integer"
        },
        "status":{
          "type":"string"
        },
        "msg":{
          "type":"string"
        }

      }
    },
    "GenericCloudSearchResults":{
      "type":"object",
      "properties":{
        "providedGenericKey":{
          "type":"array",
          "items":{
            "type":"string"
          }
        },
        "Results":{
          "type":"object",
          "properties":{
            "returnField1":{
              "type":"array",
              "items":{
                "type":"string"
              }
            }
          }
        },
        "ResultCount":{
          "type":"integer"
        },
        "found":{
          "type":"integer"
        },
        "cursor":{
          "type":"string"
        },
        "code":{
          "type":"integer"
        },
        "status":{
          "type":"string"
        },
        "msg":{
          "type":"string"
        }

      }
    },
    "CloudSearchResults":{
      "type":"object",
      "properties":{
        "providedGenericKey":{
          "type":"array",
          "items":{
            "type":"string"
          }
        },
        "Results":{
          "type":"object",
          "properties":{
            "returnField1":{
              "type":"array",
              "items":{
                "type":"string"
              }
            }
          }
        },
        "ResultCount":{
          "type":"integer"
        },
        "code":{
          "type":"integer"
        },
        "status":{
          "type":"string"
        },
        "msg":{
          "type":"string"
        }

      }
    },
    "CloudSearchPut" : {
      "type" : "object",
      "required"  : [ "items"],
      "properties" : {
        "items":{
          "type":"array",
          "items":{
            "type":"object",
            "properties":{
              "xc_sku":{
                "type":"string"
              },
              "xc_category":{
                "type":"array",
                "items":{
                  "type":"string"
                }
              },
              "xc_hierachy":{
                "type":"array",
                "items":{
                  "type":"string"
                }
              },
              "productname":{
                "type":"string"
              },
              "image":{
                "type":"string"
              },
              "size":{
                "type":"array",
                "items":{
                  "type":"string"
                }
              }
            }
          }
        }
      }
    },
    "Result" : {
      "type" : "object",
      "properties" : {
        "body" : {
          "$ref" : "#/definitions/HttpEntity"
        }
      }
    }
  }
}
